…
q4.1
```

    ## # A tibble: 132 x 2
    ##    username   total_correct
    ##    <chr>              <dbl>
    ##  1 accurate               3
    ##  2 advice                 4
    ##  3 appreciate             4
    ##  4 Argentina              2
    ##  5 argued                 4
    ##  6 binoculars             1
    ##  7 butter                 3
    ##  8 cardigan               3
    ##  9 category               3
    ## 10 civilized              1
    ## # … with 122 more rows
…
